{
  "cloudflare": [
    "https://invidious.lunar.icu",
    "https://invidious.kavin.rocks",
    "https://piped.kavin.rocks",
    "https://piped.tokhmi.xyz",
    "https://piped.moomoo.me",
    "https://piped.syncpundit.com",
    "https://piped.mha.fi",
    "https://piped.shimul.me",
    "https://nitter.domain.glass",
    "https://birdsite.xanny.family",
    "https://nitter.moomoo.me",
    "https://notabird.site",
    "https://fuckthesacklers.network",
    "https://nitter.winscloud.net",
    "https://twtr.bch.bar",
    "https://nitter.lunar.icu",
    "https://twitter.dr460nf1r3.org",
    "https://bib.actionsack.com",
    "https://libreddit.domain.glass",
    "https://r.nf",
    "https://libreddit.flux.industries",
    "https://lr.oversold.host",
    "https://libreddit.hu",
    "https://lr.stilic.ml",
    "https://reddi.tk",
    "https://r.walkx.org",
    "https://libreddit.yonalee.eu",
    "https://libreddit.winscloud.net",
    "https://libreddit.lunar.icu",
    "https://r.ahwx.org",
    "https://reddit.dr460nf1r3.org",
    "https://teddit.domain.glass",
    "https://wiki.604kph.xyz",
    "https://wikiless.lunar.icu",
    "https://lingva.lunar.icu",
    "https://searx.josie.lol",
    "https://searx.org",
    "https://searx.run",
    "https://searx.albony.xyz",
    "https://search.albony.xyz",
    "https://search.garudalinux.org",
    "https://search.dr460nf1r3.org",
    "https://whoogle.lunar.icu",
    "https://rimgo.lunar.icu",
    "https://i.actionsack.com"
  ],
  "authenticate": [
    "https://nitter.nixnet.services"
  ]
}